<?xml version="1.0" encoding="UTF-8" standalone="no"?>
<svg width="19px" height="20px" viewBox="0 0 19 20" version="1.1" xmlns="http://www.w3.org/2000/svg" xmlns:xlink="http://www.w3.org/1999/xlink">
    <!-- Generator: Sketch 41.2 (35397) - http://www.bohemiancoding.com/sketch -->
    <title>shoes</title>
    <desc>Created with Sketch.</desc>
    <defs></defs>
    <g id="Page-1" stroke="none" stroke-width="1" fill="none" fill-rule="evenodd">
        <g id="icons" transform="translate(-832.000000, -593.000000)" stroke="#83CBB4">
            <g id="shoes" transform="translate(832.000000, 594.000000)">
                <path d="M17.5263155,16.5629883 C17.5263153,17.0950194 17.103127,17.5263158 16.5680679,17.5263158 L10.4210526,17.5263158 L1.11106908,6.88633454 C0.759051164,6.48402834 0.766728626,5.84942698 1.12815431,5.46897889 C1.12815431,5.46897889 1.27163673,5.31794477 1.34569231,5.23999152 C1.65502296,4.91438031 2.36842101,4.26315789 2.36842101,4.26315789 L11.3684211,15.1578947 L17.526316,15.1578947 L17.5263155,16.5629883 Z" id="Line-122" stroke-width="1.5" stroke-linecap="square"></path>
                <path d="M17.5263158,14.6842107 C17.5263158,13.2631588 16.995996,11.8421053 15.1578947,11.8421055 C15.1578947,11.8421053 13.7747368,11.8421053 13.7747368,11.8421053 L11.8421052,4.73684231 C11.8421052,4.73684231 9.94736838,6.63157916 8.05263154,4.73684231 C6.1578947,2.84210547 6.63157894,0.473684205 6.63157894,0.473684205 L2.36842104,4.26315769" id="Line-121" stroke-width="1.5" stroke-linecap="round" stroke-linejoin="round"></path>
                <path d="M11.8421053,7.10526316 L7.57894737,9.47368421" id="Line-120" stroke-width="0.959999981" stroke-linecap="square"></path>
                <path d="M12.3157895,9.47368421 L9,11.3684211" id="Line-119" stroke-width="0.959999981" stroke-linecap="square"></path>
            </g>
        </g>
    </g>
</svg>