<?xml version="1.0" encoding="UTF-8"?>
<svg width="61px" height="41px" viewBox="0 0 61 41" version="1.1" xmlns="http://www.w3.org/2000/svg" xmlns:xlink="http://www.w3.org/1999/xlink">
    <!-- Generator: sketchtool 42 (36781) - http://www.bohemiancoding.com/sketch -->
    <title>F1D2AE0A-91D9-4078-B87E-54D421CCDF97</title>
    <desc>Created with sketchtool.</desc>
    <defs></defs>
    <g id="Page-1" stroke="none" stroke-width="1" fill="none" fill-rule="evenodd">
        <g id="Checkout-section" transform="translate(-735.000000, -1596.000000)">
            <g id="Group-7-Copy" transform="translate(681.000000, 1596.000000)">
                <g id="Paypal-Card" transform="translate(54.000000, 0.000000)">
                    <path d="M60.9725126,35.8084726 C60.9725126,38.6219954 58.686618,40.9239687 55.8927469,40.9239687 L5.09508992,40.9239687 C2.30121879,40.9239687 0.0153242262,38.6219954 0.0153242262,35.8084726 L0.0153242262,5.11549608 C0.0153242262,2.30197324 2.30121879,0 5.09508992,0 L55.8927469,0 C58.686618,0 60.9725126,2.30197324 60.9725126,5.11549608 L60.9725126,35.8084726 L60.9725126,35.8084726 Z" id="Shape" fill="#FFFFFF"></path>
                    <path d="M60.9725126,28.1352284 L60.9725126,35.8084726 C60.9725126,36.5123648 60.8292632,37.1835179 60.5712111,37.7943081 C60.312143,38.4050984 59.9403042,38.957572 59.4800774,39.4210359 C59.0198507,39.8844998 58.4722519,40.2589542 57.8647119,40.5198445 C57.256156,40.7797117 56.5907067,40.9239687 55.8927469,40.9239687 L33.0774872,40.9239687 L10.2622276,40.9239687 L60.9725126,28.1352284 L60.9725126,28.1352284 Z" id="Shape" fill="#113984"></path>
                    <path d="M60.9725126,5.11549608 L60.9725126,20.4619843 L60.9725126,35.8084726 C60.9725126,37.215234 60.4015469,38.494108 59.4800774,39.4210359 C58.5586079,40.3479638 57.2896825,40.9239687 55.8927469,40.9239687 L30.4939184,40.9239687 L5.09508992,40.9239687 C3.69815436,40.9239687 2.42821293,40.3489869 1.50775939,39.4210359 L59.4800774,1.50293275 C60.400531,2.42986064 60.9725126,3.70873466 60.9725126,5.11549608 Z" id="Shape" fill="#FFFFFF" opacity="0.08"></path>
                    <path d="M55.8927469,1.02309922 C58.1339395,1.02309922 59.9565594,2.85853921 59.9565594,5.11549608 L59.9565594,35.8084726 C59.9565594,38.0654294 58.1339395,39.9008694 55.8927469,39.9008694 L5.09508992,39.9008694 C2.8538973,39.9008694 1.03127737,38.0654294 1.03127737,35.8084726 L1.03127737,5.11549608 C1.03127737,2.85853921 2.8538973,1.02309922 5.09508992,1.02309922 L55.8927469,1.02309922 L55.8927469,1.02309922 Z M55.8927469,0 L5.09508992,0 C2.30121879,0 0.0153242262,2.30197324 0.0153242262,5.11549608 L0.0153242262,35.8084726 C0.0153242262,38.6219954 2.30121879,40.9239687 5.09508992,40.9239687 L55.8927469,40.9239687 C58.686618,40.9239687 60.9725126,38.6219954 60.9725126,35.8084726 L60.9725126,5.11549608 C60.9725126,2.30197324 58.686618,0 55.8927469,0 L55.8927469,0 L55.8927469,0 Z" id="Shape" fill="#009EE3"></path>
                    <g id="paypal-seeklogo.com" transform="translate(5.353349, 11.626298)">
                        <g id="Group">
                            <path d="M4.42235739,3.83821938 L7.8529273,3.83821938 C9.69465388,3.83821938 10.3881348,4.77589155 10.2810844,6.15581653 C10.1045266,8.43057768 8.7370446,9.68849574 6.92329811,9.68849574 L6.00757041,9.68849574 C5.75902586,9.68849574 5.59176521,9.85378395 5.52411718,10.3028941 L5.13124503,12.9107252 C5.1057442,13.08011 5.01719965,13.1795857 4.88402865,13.1916083 L2.73292743,13.1916083 C2.5305146,13.1916083 2.45852788,13.0358491 2.51147752,12.6985044 L3.82512442,4.33310439 C3.87780842,3.997808 4.06012165,3.83821938 4.42235739,3.83821938 L4.42235739,3.83821938 Z" id="Shape" fill="#009EE3"></path>
                            <path d="M19.3146647,3.68361791 C20.4722961,3.68361791 21.5400548,4.31484788 21.3938677,5.88900432 C21.2205861,7.75508681 20.2206525,8.79428298 18.6480128,8.79855767 L17.2761036,8.79855767 C17.0782951,8.79855767 16.9832868,8.96019458 16.9313111,9.29317551 L16.6665629,10.9915653 C16.6266294,11.2479579 16.4960261,11.3745958 16.3022907,11.3745958 L15.0246814,11.3745958 C14.8208519,11.3745958 14.7498391,11.2435942 14.7952625,10.9507776 L15.8514218,4.14288046 C15.9033089,3.8081184 16.0307246,3.68361791 16.2563361,3.68361791 L19.3146647,3.68361791 L19.3146647,3.68361791 Z M17.2335137,7.32779542 L18.2742663,7.32797353 C18.9248031,7.30330498 19.3575203,6.85009825 19.4009956,6.03238471 C19.4278246,5.52734731 19.0888761,5.16613558 18.54902,5.16862915 L17.5692746,5.17308196 L17.2335137,7.32779542 L17.2335137,7.32779542 Z M24.8670276,10.8527267 C24.9837293,10.7462156 25.1028217,10.6904664 25.0855555,10.8221805 L25.0441167,11.1376174 C25.0225118,11.302015 25.0875921,11.3899134 25.2401543,11.3899134 L26.3752069,11.3899134 C26.5661089,11.3899134 26.6594349,11.3120783 26.7065405,11.014898 L27.4060425,6.59931614 C27.4411061,6.37747728 27.3878023,6.26865067 27.2201875,6.26865067 L25.9723292,6.26865067 C25.8597005,6.26865067 25.8052456,6.33223676 25.7757603,6.50509474 L25.7294515,6.7768941 C25.7052788,6.91876054 25.6408184,6.94334003 25.5807852,6.80058303 C25.3688095,6.29616902 24.8287763,6.07005546 24.0714548,6.08572935 C22.320575,6.12188614 21.1402762,7.45870795 21.0140116,9.17223726 C20.916347,10.4977489 21.8609402,11.5386372 23.1053453,11.5385481 C24.008234,11.5385481 24.4121743,11.2678174 24.8670276,10.8527267 L24.8670276,10.8527267 L24.8670276,10.8527267 Z M23.9172102,10.1743861 C23.1636076,10.1743861 22.6382728,9.56987296 22.747891,8.82865865 C22.8575976,8.08744435 23.5616153,7.48293123 24.315218,7.48293123 C25.0688206,7.48293123 25.5941554,8.08744435 25.4845373,8.82865865 C25.3749191,9.56987296 24.6709014,10.1743861 23.9172102,10.1743861 L23.9172102,10.1743861 L23.9172102,10.1743861 Z M29.6286877,6.25449074 L28.4819473,6.25449074 C28.2442937,6.25449074 28.1476916,6.42939701 28.2232201,6.65185927 L29.652152,10.861009 L28.2440281,12.8629911 C28.1265294,13.0300605 28.2171105,13.1828808 28.3829545,13.1828808 L29.6768559,13.1828808 C29.8699716,13.1828808 29.964183,13.1333656 30.0614049,12.9930131 L34.456402,6.65185927 C34.5917866,6.45647008 34.527946,6.25208623 34.3060534,6.25190812 L33.0828104,6.25066133 C32.8728713,6.25039416 32.7884884,6.33401788 32.6680678,6.50981471 L30.8348415,9.18488324 L30.0192577,6.5051838 C29.9690529,6.33989559 29.8491636,6.25449074 29.6286877,6.25449074 L29.6286877,6.25449074 Z" id="Shape" fill="#113984"></path>
                            <path d="M39.0306133,3.68361791 C40.1882447,3.68361791 41.2560034,4.31484788 41.1099049,5.88900432 C40.9366232,7.75508681 39.9366896,8.79428298 38.3640499,8.79855767 L36.9921407,8.79855767 C36.7943322,8.79855767 36.6992354,8.96019458 36.6474368,9.29317551 L36.3826886,10.9915653 C36.342755,11.2479579 36.2121518,11.3745958 36.0184164,11.3745958 L34.7408071,11.3745958 C34.5369775,11.3745958 34.4659648,11.2435942 34.5112996,10.9507776 L35.567459,4.14288046 C35.6193461,3.8081184 35.7467617,3.68361791 35.9724617,3.68361791 L39.0306133,3.68361791 L39.0306133,3.68361791 Z M36.9494623,7.32779542 L37.9902149,7.32797353 C38.6408402,7.30330498 39.0734688,6.85009825 39.1169442,6.03238471 C39.1437732,5.52734731 38.8047361,5.16613558 38.2649686,5.16862915 L37.2852232,5.17308196 L36.9494623,7.32779542 L36.9494623,7.32779542 Z M44.5829762,10.8527267 C44.6996779,10.7462156 44.8188588,10.6904664 44.8015041,10.8221805 L44.7599767,11.1376174 C44.7383719,11.302015 44.8034521,11.3899134 44.9560144,11.3899134 L46.0910669,11.3899134 C46.2819689,11.3899134 46.3752949,11.3120783 46.4224006,11.014898 L47.1219025,6.59931614 C47.1570547,6.37747728 47.1036623,6.26865067 46.9361361,6.26865067 L45.6882778,6.26865067 C45.5756491,6.26865067 45.5211942,6.33223676 45.4917089,6.50509474 L45.4454001,6.7768941 C45.4212274,6.91876054 45.3566784,6.94334003 45.2967338,6.80058303 C45.0847581,6.29616902 44.5448135,6.07005546 43.7874034,6.08572935 C42.0365236,6.12188614 40.8562248,7.45870795 40.7299602,9.17223726 C40.6322956,10.4977489 41.5768888,11.5386372 42.8212939,11.5385481 C43.7242712,11.5385481 44.1282114,11.2678174 44.5829762,10.8527267 L44.5829762,10.8527267 L44.5829762,10.8527267 Z M43.6331588,10.1743861 C42.8795562,10.1743861 42.3542214,9.56987296 42.4638395,8.82865865 C42.5734577,8.08744435 43.2775639,7.48293123 44.0311666,7.48293123 C44.7847692,7.48293123 45.310104,8.08744435 45.2003973,8.82865865 C45.0908677,9.56987296 44.38685,10.1743861 43.6331588,10.1743861 L43.6331588,10.1743861 L43.6331588,10.1743861 Z M48.8687979,11.3979285 L47.5586928,11.3979285 C47.4546529,11.3979285 47.382312,11.3159078 47.398073,11.2156305 L48.5502146,3.88141161 C48.5659755,3.78113439 48.6639943,3.69911368 48.7681227,3.69911368 L50.0781393,3.69911368 C50.1822677,3.69911368 50.25452,3.78113439 50.2387591,3.88141161 L49.0866175,11.2156305 C49.0709451,11.3159078 48.9729263,11.3979285 48.8687979,11.3979285 L48.8687979,11.3979285 Z" id="Shape" fill="#009EE3"></path>
                            <path d="M2.27763138,0.959301341 L5.71165453,0.959301341 C6.67882662,0.959301341 7.82592122,0.990916273 8.5933368,1.6715724 C9.10592119,2.12629308 9.37491952,2.85076483 9.31284979,3.62849216 C9.10229086,6.26580087 7.53381276,7.74297517 5.4305256,7.74297517 L3.73684551,7.74297517 C3.44854446,7.74297517 3.25746533,7.93506928 3.17618144,8.45542434 L2.70353065,11.4792367 C2.67289423,11.6754274 2.58833419,11.7910223 2.43400104,11.8050041 L0.318671824,11.8050041 C0.0839402303,11.8050041 0.000442722734,11.6243983 0.0618926382,11.2332637 L1.58512448,1.53309009 C1.64613167,1.14444907 1.85757605,0.959301341 2.27763138,0.959301341 L2.27763138,0.959301341 Z" id="Shape" fill="#113984"></path>
                            <path d="M3.2254122,8.15058515 L3.82512442,4.33301533 C3.87771988,3.997808 4.06012165,3.83821938 4.42235739,3.83821938 L7.8529273,3.83821938 C8.42085203,3.83821938 8.87960132,3.92736458 9.23926927,4.09176223 C8.89456535,6.43883697 7.38523501,7.74306423 5.40856655,7.74306423 L3.71488646,7.74306423 C3.49201983,7.74297517 3.32546754,7.85759043 3.2254122,8.15058515 L3.2254122,8.15058515 Z" id="Shape" fill="#172C70"></path>
                        </g>
                    </g>
                </g>
            </g>
        </g>
    </g>
</svg>